/* XPM */
const static char * icon_xpm[] = {
"48 48 592 2",
"  	c None",
". 	c #C7C7C7",
"+ 	c #C8C8C8",
"@ 	c #C9C9C9",
"# 	c #CACACA",
"$ 	c #CBCBCB",
"% 	c #CCCCCC",
"& 	c #CDCDCD",
"* 	c #CECECE",
"= 	c #CFCFCF",
"- 	c #D0D0D0",
"; 	c #D1D1D1",
"> 	c #D2D2D2",
", 	c #D3D3D3",
"' 	c #D4D4D4",
") 	c #D6D6D6",
"! 	c #D7D7D7",
"~ 	c #D8D8D8",
"{ 	c #DADADA",
"] 	c #DCDCDC",
"^ 	c #DDDDDD",
"/ 	c #DFDFDF",
"( 	c #E0E0E0",
"_ 	c #E2E2E2",
": 	c #E3E3E3",
"< 	c #C3C3C3",
"[ 	c #BDBDBD",
"} 	c #BBBBBB",
"| 	c #BCBCBC",
"1 	c #BEBEBE",
"2 	c #BFBFBF",
"3 	c #C1C1C1",
"4 	c #C2C2C2",
"5 	c #C4C4C4",
"6 	c #C5C5C5",
"7 	c #C6C6C6",
"8 	c #D5D5D5",
"9 	c #D9D9D9",
"0 	c #DBDBDB",
"a 	c #E5E5E5",
"b 	c #BABABA",
"c 	c #B1B1B1",
"d 	c #A2A2A2",
"e 	c #A4A4A4",
"f 	c #A5A5A5",
"g 	c #A6A6A6",
"h 	c #A7A7A7",
"i 	c #A8A8A8",
"j 	c #A9A9A9",
"k 	c #AAAAAA",
"l 	c #ABABAB",
"m 	c #ACACAC",
"n 	c #ADADAD",
"o 	c #AEAEAE",
"p 	c #AFAFAF",
"q 	c #B2B2B2",
"r 	c #B3B3B3",
"s 	c #B4B4B4",
"t 	c #B5B5B5",
"u 	c #B7B7B7",
"v 	c #B9B9B9",
"w 	c #C0C0C0",
"x 	c #E4E4E4",
"y 	c #B0B0B0",
"z 	c #F0F0F0",
"A 	c #E7E7E7",
"B 	c #A1A1A1",
"C 	c #EEEEEE",
"D 	c #E1E1E1",
"E 	c #A0A0A0",
"F 	c #ECECEC",
"G 	c #E9E9E9",
"H 	c #C6C8C0",
"I 	c #C4CAB5",
"J 	c #B7BEA4",
"K 	c #B6C099",
"L 	c #C1C9AC",
"M 	c #C3C8B6",
"N 	c #CFD0CC",
"O 	c #EAEAEA",
"P 	c #D9D9D7",
"Q 	c #B1B897",
"R 	c #A3B45A",
"S 	c #A5B857",
"T 	c #B0C45D",
"U 	c #B3C75E",
"V 	c #B3C85F",
"W 	c #B2C860",
"X 	c #B0C65F",
"Y 	c #A8BE5C",
"Z 	c #9BAC64",
"` 	c #C1C7B4",
" .	c #DEDEDE",
"..	c #E8E8E8",
"+.	c #BFC3B0",
"@.	c #AABB5B",
"#.	c #B1C35C",
"$.	c #B4C75D",
"%.	c #B6C95F",
"&.	c #B6CB60",
"*.	c #BCD163",
"=.	c #ADC05C",
"-.	c #B9CE62",
";.	c #BDD365",
">.	c #B7CE62",
",.	c #B2CA61",
"'.	c #ACC35E",
").	c #A1B36A",
"!.	c #B8B8B8",
"~.	c #E6E6E6",
"{.	c #AFB594",
"].	c #B1C25B",
"^.	c #B9CB5F",
"/.	c #B7C95E",
"(.	c #B4C65D",
"_.	c #BDD162",
":.	c #AFC15B",
"<.	c #B9CE61",
"[.	c #C2D766",
"}.	c #B5CA60",
"|.	c #B6CC61",
"1.	c #B3C960",
"2.	c #B4CA61",
"3.	c #BDD767",
"4.	c #B4CD63",
"5.	c #A4BA5C",
"6.	c #C4C7BC",
"7.	c #AFB39D",
"8.	c #B3C45B",
"9.	c #B9CA5E",
"0.	c #C1D262",
"a.	c #B8C95E",
"b.	c #BED162",
"c.	c #B6CA5F",
"d.	c #B7CC60",
"e.	c #BACF62",
"f.	c #B0C45E",
"g.	c #B1C75F",
"h.	c #C0D968",
"i.	c #C4DE6B",
"j.	c #ADC45F",
"k.	c #AFC861",
"l.	c #97AC54",
"m.	c #C3C6BD",
"n.	c #CDCEC8",
"o.	c #A6B455",
"p.	c #B6C45C",
"q.	c #BAC95E",
"r.	c #BCCC5F",
"s.	c #B4C35B",
"t.	c #BCCD60",
"u.	c #B5C75D",
"v.	c #A7AE4E",
"w.	c #ACA748",
"x.	c #B0A949",
"y.	c #A3A247",
"z.	c #A6B756",
"A.	c #B0C55E",
"B.	c #BED667",
"C.	c #C7E26D",
"D.	c #AEC55F",
"E.	c #B2CB62",
"F.	c #B6D065",
"G.	c #93A854",
"H.	c #CFD1CD",
"I.	c #9CA475",
"J.	c #B4C25A",
"K.	c #BECC5E",
"L.	c #C5D461",
"M.	c #B8C65B",
"N.	c #B2C059",
"O.	c #ABB050",
"P.	c #A27321",
"Q.	c #B06C11",
"R.	c #B06D12",
"S.	c #B27115",
"T.	c #AC7017",
"U.	c #AE761B",
"V.	c #A08B35",
"W.	c #A8BA58",
"X.	c #BDD667",
"Y.	c #C3DE6B",
"Z.	c #B1CA62",
"`.	c #B7D165",
" +	c #B4CF65",
".+	c #939E76",
"++	c #C8C8C5",
"@+	c #ACBA55",
"#+	c #B7C359",
"$+	c #BDCA5C",
"%+	c #C0CD5E",
"&+	c #B5C158",
"*+	c #AFAF4D",
"=+	c #A9640D",
"-+	c #AD650D",
";+	c #B36A0E",
">+	c #B16B10",
",+	c #B16E12",
"'+	c #B97516",
")+	c #AE7318",
"!+	c #B17A1D",
"~+	c #AB8026",
"{+	c #AFC05B",
"]+	c #B4CC63",
"^+	c #C5E16D",
"/+	c #B3CD63",
"(+	c #B0CA62",
"_+	c #A2BB5B",
":+	c #C0C2BA",
"<+	c #B9BDA5",
"[+	c #B2BD56",
"}+	c #B6C158",
"|+	c #BDC85B",
"1+	c #C0CB5D",
"2+	c #ADB551",
"3+	c #A8650F",
"4+	c #AE630A",
"5+	c #AD630A",
"6+	c #B5680C",
"7+	c #B0680E",
"8+	c #B66F11",
"9+	c #AC6C14",
"0+	c #AC7118",
"a+	c #BD811E",
"b+	c #A9781F",
"c+	c #A2822C",
"d+	c #B4CD64",
"e+	c #ACC55F",
"f+	c #BCD768",
"g+	c #BEDA6A",
"h+	c #ACC761",
"i+	c #A1AE85",
"j+	c #9CA36A",
"k+	c #B7C258",
"l+	c #B5BE57",
"m+	c #B9C358",
"n+	c #BFC95A",
"o+	c #AD9C40",
"p+	c #AE6109",
"q+	c #AD6008",
"r+	c #AD620A",
"s+	c #AD650C",
"t+	c #AB6A11",
"u+	c #B47316",
"v+	c #B17619",
"w+	c #B58222",
"x+	c #AD8225",
"y+	c #9F9E45",
"z+	c #C0DC6B",
"A+	c #B0C962",
"B+	c #B3CE64",
"C+	c #BAD769",
"D+	c #A0B95C",
"E+	c #9FA757",
"F+	c #B6BF57",
"G+	c #B8C156",
"H+	c #B6BD55",
"I+	c #BAC157",
"J+	c #9F7F2F",
"K+	c #AF6007",
"L+	c #B36007",
"M+	c #B05F07",
"N+	c #A55B07",
"O+	c #A85B06",
"P+	c #A65D09",
"Q+	c #A76C15",
"R+	c #AC761B",
"S+	c #B57F20",
"T+	c #B58424",
"U+	c #B18627",
"V+	c #9B7F2C",
"W+	c #B4CF64",
"X+	c #BDD96A",
"Y+	c #B7D367",
"Z+	c #B0CB63",
"`+	c #B1CD64",
" @	c #BABBB9",
".@	c #9F9F9F",
"+@	c #98A053",
"@@	c #B4BD55",
"#@	c #BBC358",
"$@	c #B6BC54",
"%@	c #B2B852",
"&@	c #A37E2E",
"*@	c #B46006",
"=@	c #AF5C05",
"-@	c #AB5A04",
";@	c #A65502",
">@	c #BD5E00",
",@	c #AD5600",
"'@	c #9F5405",
")@	c #AF7E21",
"!@	c #B18123",
"~@	c #B78927",
"{@	c #B58B2B",
"]@	c #AF8D2E",
"^@	c #A6BE5B",
"/@	c #B9D568",
"(@	c #B8D468",
"_@	c #BCDA6A",
":@	c #A8C35F",
"<@	c #AFB3A7",
"[@	c #A7AE63",
"}@	c #B4BB54",
"|@	c #B6BD54",
"1@	c #B4B952",
"2@	c #B9BE54",
"3@	c #AF993E",
"4@	c #B05D04",
"5@	c #AE5B04",
"6@	c #AC5803",
"7@	c #A45301",
"8@	c #B45900",
"9@	c #A75400",
"0@	c #AA5500",
"a@	c #A87F26",
"b@	c #BC8F2B",
"c@	c #B28A2A",
"d@	c #B7912F",
"e@	c #AF9131",
"f@	c #9FB053",
"g@	c #B0CC63",
"h@	c #BCDB6A",
"i@	c #ADC962",
"j@	c #AFCB64",
"k@	c #ABB0A2",
"l@	c #9E9E9E",
"m@	c #A6A98C",
"n@	c #BAC156",
"o@	c #B3B851",
"p@	c #B8BB53",
"q@	c #B9BC52",
"r@	c #AEA948",
"s@	c #AB5A05",
"t@	c #B05B03",
"u@	c #B05A02",
"v@	c #AD5701",
"w@	c #AF5900",
"x@	c #A95500",
"y@	c #AF8D2F",
"z@	c #A9882C",
"A@	c #B79430",
"B@	c #B39332",
"C@	c #B19634",
"D@	c #B1C55D",
"E@	c #BDDB6B",
"F@	c #BDDC6C",
"G@	c #B0CD65",
"H@	c #A8ABA1",
"I@	c #AFB0A6",
"J@	c #A9AF4E",
"K@	c #B7BC53",
"L@	c #B8BB52",
"M@	c #B9BA51",
"N@	c #B7B74F",
"O@	c #A3842F",
"P@	c #AB5903",
"Q@	c #AD5901",
"R@	c #AF5801",
"S@	c #B15901",
"T@	c #A36F1E",
"U@	c #AF9535",
"V@	c #BB9C36",
"W@	c #B99B36",
"X@	c #B49836",
"Y@	c #AE9637",
"Z@	c #A8C25F",
"`@	c #C1E06E",
" #	c #B8D568",
".#	c #B4D267",
"+#	c #A9C460",
"@#	c #A8A9A4",
"##	c #9D9D9D",
"$#	c #909652",
"%#	c #B9BD54",
"&#	c #BCBE52",
"*#	c #B9B950",
"=#	c #B7B64E",
"-#	c #B7B34C",
";#	c #AA993D",
">#	c #A06D1F",
",#	c #A75905",
"'#	c #A05B0B",
")#	c #A27C29",
"!#	c #B29C3A",
"~#	c #B89F3A",
"{#	c #AE9636",
"]#	c #AF9637",
"^#	c #9D923B",
"/#	c #B7D568",
"(#	c #AECB63",
"_#	c #C2E26E",
":#	c #ADCA63",
"<#	c #A0BA5C",
"[#	c #B4B5A8",
"}#	c #B5B951",
"|#	c #B2B34D",
"1#	c #B4B34D",
"2#	c #B5B34C",
"3#	c #B5B14A",
"4#	c #B1AC47",
"5#	c #BBB249",
"6#	c #B3A844",
"7#	c #ADA040",
"8#	c #B6A43F",
"9#	c #B3A13D",
"0#	c #B9A43D",
"a#	c #B59F3B",
"b#	c #B19C3B",
"c#	c #9EAD51",
"d#	c #A8C360",
"e#	c #AECA63",
"f#	c #AFCC64",
"g#	c #B6D469",
"h#	c #8CA258",
"i#	c #A0A27E",
"j#	c #B9BB52",
"k#	c #B4B44D",
"l#	c #BAB84E",
"m#	c #B1AD49",
"n#	c #B3AD47",
"o#	c #BCB147",
"p#	c #B8AA44",
"q#	c #B6A641",
"r#	c #B5A43E",
"s#	c #B6A43E",
"t#	c #BEAA40",
"u#	c #B6A33E",
"v#	c #96913D",
"w#	c #B1CF66",
"x#	c #BEDD6D",
"y#	c #B4D268",
"z#	c #ADCA64",
"A#	c #9FA690",
"B#	c #9C9C9C",
"C#	c #CBCBCA",
"D#	c #A1A279",
"E#	c #B6B64F",
"F#	c #B6B44D",
"G#	c #B5B14B",
"H#	c #B8B24A",
"I#	c #B5AD47",
"J#	c #B8AE47",
"K#	c #B6AA45",
"L#	c #B8A944",
"M#	c #B7A842",
"N#	c #AE9E3E",
"O#	c #A4953A",
"P#	c #9C963F",
"Q#	c #C8EA73",
"R#	c #C3E470",
"S#	c #B1CE65",
"T#	c #9EB95D",
"U#	c #B8B9B7",
"V#	c #A9A98E",
"W#	c #ABAB4C",
"X#	c #B3B14B",
"Y#	c #B3AF49",
"Z#	c #B7B048",
"`#	c #B6AE47",
" $	c #B9AE47",
".$	c #B4A844",
"+$	c #B6A944",
"@$	c #B9AC45",
"#$	c #A4A94C",
"$$	c #AFCD65",
"%$	c #C1E270",
"&$	c #AAC662",
"*$	c #AECB65",
"=$	c #ACC863",
"-$	c #B3D167",
";$	c #949C82",
">$	c #A6B487",
",$	c #A1B154",
"'$	c #9FA047",
")$	c #A29F43",
"!$	c #A9A344",
"~$	c #A6A042",
"{$	c #A6A144",
"]$	c #A8B050",
"^$	c #ABC35F",
"/$	c #B7D76A",
"($	c #BEDF6E",
"_$	c #B1D067",
":$	c #B0CF66",
"<$	c #92A862",
"[$	c #B2C58E",
"}$	c #C7EA74",
"|$	c #ACC964",
"1$	c #ADCB65",
"2$	c #C5E873",
"3$	c #A8C661",
"4$	c #BBDC6D",
"5$	c #B3D268",
"6$	c #BDDE6D",
"7$	c #B0CE66",
"8$	c #ABC863",
"9$	c #AFCE65",
"0$	c #ABC963",
"a$	c #94AD58",
"b$	c #B1B2AF",
"c$	c #AEB59F",
"d$	c #C9EB75",
"e$	c #AECC65",
"f$	c #ACCA64",
"g$	c #A6C360",
"h$	c #BADB6C",
"i$	c #BFE16F",
"j$	c #AECD65",
"k$	c #ACCB64",
"l$	c #B6D669",
"m$	c #ADCC65",
"n$	c #99B25D",
"o$	c #ABACA9",
"p$	c #9B9B9B",
"q$	c #BFC0BF",
"r$	c #B5D36F",
"s$	c #A8C461",
"t$	c #BEDE6F",
"u$	c #AAC863",
"v$	c #BFE06F",
"w$	c #AAC762",
"x$	c #99AD71",
"y$	c #AFAFAE",
"z$	c #9A9A9A",
"A$	c #B0B4A9",
"B$	c #BCDC70",
"C$	c #A4C15F",
"D$	c #C0E270",
"E$	c #A6C260",
"F$	c #BFDF6F",
"G$	c #ABC964",
"H$	c #ADCB64",
"I$	c #9CB560",
"J$	c #9EA295",
"K$	c #999999",
"L$	c #B2B4AF",
"M$	c #A9BF79",
"N$	c #9DB661",
"O$	c #90A855",
"P$	c #798C4B",
"Q$	c #919D79",
"R$	c #9B9E97",
"S$	c #989898",
"T$	c #979797",
"U$	c #8D8D8D",
"V$	c #868686",
"W$	c #878787",
"X$	c #565656",
"Y$	c #535353",
"Z$	c #525252",
"`$	c #515151",
" %	c #505050",
".%	c #4F4F4F",
"+%	c #4E4E4E",
"@%	c #4D4D4D",
"#%	c #4C4C4C",
"$%	c #4B4B4B",
"%%	c #7D7D7D",
"&%	c #838383",
"*%	c #F2F2F2",
"=%	c #F1F1F1",
"-%	c #EFEFEF",
";%	c #EDEDED",
">%	c #EBEBEB",
",%	c #848484",
"'%	c #828282",
")%	c #A3A3A3",
"!%	c #8A8A8A",
"~%	c #999A98",
"{%	c #577651",
"]%	c #727D71",
"^%	c #202020",
"/%	c #212121",
"(%	c #B6B6B6",
"_%	c #8E8E8E",
":%	c #8C8C8C",
"<%	c #6E8969",
"[%	c #93EB69",
"}%	c #60B93C",
"|%	c #1B1B1B",
"1%	c #949494",
"2%	c #929292",
"3%	c #99A397",
"4%	c #62BC3E",
"5%	c #629E51",
"6%	c #2D2D2D",
"7%	c #858585",
"8%	c #585858",
"9%	c #181818",
"0%	c #191919",
"a%	c #000000",
"                                                                                                ",
"                                                                                                ",
"                                                                                                ",
"        . + + @ + @ @ @ @ @ # # # # $ $ $ % % % & * = - ; > , ' ) ! ~ { { ] ^ / ( _ : ~         ",
"      < [ } | [ 1 2 2 3 4 4 < 5 6 6 7 . + + @ @ # $ % * = ; > ' 8 ) ~ 9 0 ] ^ / ( _ : a >       ",
"      @ b b c d d d e f f g h h i i j k k l l m n n o p c q r s t u u v b } | [ w ' _ x (       ",
"      # } y g a z z z z z z z z z z z z z z z z z z z z z z z z z z z z z z z z A t ' _ :       ",
"      $ | B : C C C C C C C C C C C C C C C C C C C C C C C C C C C C C C C C C C a 2 D D       ",
"      % [ E F F F F F F F F F F F F F G H I J K L M N F F F F F F F F F F F F F F F | ( /       ",
"      * [ E O O O O O O O O O O O P Q R S T U V W X Y Z ` a O O O O O O O O O O O O b  ./       ",
"      * 1 E ....................+.@.#.$.%.&.*.=.-.;.>.,.'.).N ......................!.^ ^       ",
"      = 2 E A ~.~.~.~.~.~.~.~.{.].^./.(._.:.<.[.}.|.1.2.3.4.5.6.~.~.~.~.~.~.~.~.~.~.u 0 ]       ",
"      = w E a x x x x x x x 7.8.9.0.8.a.^.b.c.d.e.f.g.h.i.j.k.l.m.x x x x x x x x x t { 0       ",
"      ; w E : _ _ _ _ _ _ n.o.p.q.r.s.t.u.v.w.x.y.z.A.B.C.D.E.F.G.H._ _ _ _ _ _ _ _ r 9 9       ",
"      > 3 E _ ( ( ( ( ( ( I.J.K.L.M.N.O.P.Q.R.S.T.U.V.W.X.Y.Z.`. +.+( ( ( ( ( ( ( ( c ! ~       ",
"      , 3 E (  . . . . .++@+#+$+%+&+*+=+-+;+>+,+'+)+!+~+{+]+^+/+(+_+:+ . . . . . ./ p ) !       ",
"      , 4 E / ] ] ] ] ] <+[+}+|+1+2+3+4+5+6+7+8+9+0+a+b+c+d+e+f+g+h+i+] ] ] ] ] ] ^ o 8 8       ",
"      , 4 E ^ { { { { { j+k+l+m+n+o+p+q+q+r+s+t+u+v+!+w+x+y+z+A+B+C+D+~ { { { { { ] m , '       ",
"      ' < E ] ~ ~ ~ ~ ~ E+F+G+H+I+J+K+L+M+N+O+P+Q+R+S+T+U+V+W+X+Y+Z+`+ @~ ~ ~ ~ ~ { k > ,       ",
"      8 < .@0 ) ) ) 8 ) +@@@#@$@%@&@*@=@-@;@>@,@'@)@!@~@{@]@^@/@(@_@:@<@) ) ) ) ) 9 j - >       ",
"      ) < .@9 , , ' ' ' [@}@|@1@2@3@4@5@6@7@8@9@0@a@b@c@d@e@f@g@h@i@j@k@' ' ' ' ' ~ h = ;       ",
"      ) < l@~ ; > > > , m@n@o@p@q@r@s@t@u@v@9@w@x@y@z@A@B@C@D@E@i@F@G@H@> > > > > ) g * =       ",
"      ! < l@! - - - ; ; I@J@K@L@M@N@O@P@u@Q@R@S@T@U@V@W@X@Y@Z@`@ #.#+#@#- - - - - 8 e % =       ",
"      ! 5 ##) = = - - ; - $#%#&#*#=#-#;#>#,#'#)#!#~#{#]#~#^#/#(#_#:#<#2 * * * * * , d $ &       ",
"      ~ 5 ##8 * = - - - ; [#}#|#1#2#3#4#5#6#7#8#9#0#a#a#b#c#d#e#f#g#h#% % % % % % > B # %       ",
"      9 5 ##8 * = - - ; - - i#j#k#l#m#n#5#o#p#q#r#s#t#u#v#w#x#y#z#:#A## # # # # # ; E + $       ",
"      { 6 B#8 * - - ; - - = C#D#E#F#G#H#I#J#K#L#M#N#O#P#j@Q#R#Q#S#T#U#+ + + + + + - .@. #       ",
"      0 . ##8 - - ; ; ; - = * & V#W#X#Y#Z#`# $.$+$@$#$$$%$&$*$=$-$;$7 7 7 7 7 7 7 * l@. #       ",
"      ^ . ##) ; > > ; ; - = * & % >$,$'$)$!$~${$]$^$/$($_$w#_$:$<$1 5 5 5 5 5 5 5 & ##7 @       ",
"       .@ l@) > > > ; - = * & % $ [$_$}$|$1$2$3$4$5$6$7$8$9$0$a$b$4 4 4 4 4 4 4 4 & B#7 +       ",
"      / # l@! ' , , > - = * & % $ c$d$e$f$d$g$h$w#i$j$k$l$m$n$o$w 2 w w w w w w w % p$6 +       ",
"      / % .@! ' , , ; - = * & $ # q$r$0$}$s$t$u$v$0$w$5$0$x$y$1 1 1 1 [ 1 1 1 1 1 $ z$5 +       ",
"      D & E ! ' ' > ; - = & % $ # @ A$B$C$D$E$F$G$H$g$I$J$| [ | | | | | | | | | | # K$5 .       ",
"      D = B ! ' ' > ; - = * % $ # + + L$M$N$G$O$P$Q$R$b | | } } b } b b b v b b b # S$< .       ",
"      : - B ; 8 , > ; ; = & % $ @ + 7 6 5 } m v 2 [ [ | } } b v v !.!.!.!.!.!.!.| + T$< .       ",
"      : ; k U$' _ _ _ D D D ( /  . .^ ^ ] ] 0 { { { { 9 ~ ~ ~ ~ ~ ! ! ! ! ! ) ) & V$l@4 .       ",
"      ~., * W$X$Y$Z$Z$`$ % %.%.%.%.%+%+%+%@%@%@%@%@%@%#%#%#%#%$%$%#%#%@%@%@%@%@% %%%1 3 <       ",
"      $ x 8 ; = * % # + . 6 < < 4 3 3 w w 2 2 1 1 [ | | } } b b v b b } | | [ 1 2 2 3 7 l       ",
"      &%' z *%=%=%z -%;%>%O ..~.a : _ ( /  .] 0 9 ~ ! 8 8 , > ; = * * & % % % $ $ $ @ !.,%      ",
"      '%)%w 1 r j j l l l l l i i i i i i i i i i i i h h g g g g g h h h f )%)%f o v s !%      ",
"      W$i . 5 v ~%{%]%p c y y o o o o o o o o o o o y ^%r ^%r ^%s ^%t /%(%^%s ^%r | . | _%      ",
"      :%o * $ 2 <%[%}%f u u u s s s s s s s s s s s } |%4 |%4 |%< |%6 |%6 |%< |%1 < * < 1%      ",
"      2%t 8 > 7 3%4%5%| [ [ [ } } } } } } } } } } } 7 6%- 6%- 6%; 6%> 6%, 6%; 6%+ @ 8 # K$      ",
"      7%} ] 9 & 7 3 @ 5 5 5 5 3 3 3 3 3 3 3 3 3 3 3 % 8%~ 8%~ 8%9 8%{ 8%0 8%9 8%- - ] ; U$      ",
"      9%.@ .D ' + + # # # # # . . . . . . . . . . . . ; . ; . ; + > # ' $ , + > # !  .y 0%      ",
"          a%a%a%a%a%a%a%a%a%a%a%a%a%a%a%a%a%a%a%a%a%a%a%a%a%a%a%a%a%a%a%a%a%a%a%a%a%a%          ",
"                                                                                                ",
"                                                                                                "};
